{
    "version": 1,
    "rules": [
        {
        "description": "Player moves.",
        "service_name": "*",
        "http_method": "*",
        "url_path": "/api/move/*",
        "fixed_target": 0,
        "rate": 0.05
        }
    ],
    "default": {
        "fixed_target": 1,
        "rate": 0.1
        }
    }