conversation_id,conversation_start_time,rating,feedback
a1030647ee50caf8fe83f345464d00ee8354cd1b6db9c610cdc4c1c1a96f7ee4,2018-05-04 23:30:21,1.0,the bot offered to chat about movies or books and could not ummm respond to a request to talk about movies and then could not respond properly to a request uhhh to talk about books as well so definitely needs some work still thanks
1d312fd5f1a71b787ce08485c73ef0589c2a0a19293f9dcac84303beec947d0a,2018-05-04 23:56:12,2.75,the grammar is very poor
fe71bae33c20f8fda4c0b69d1b992a837f4319bd721bc695fa160c971b781bf9,2018-05-05 00:06:52,1.0,it's bad you cannot make conversations when the replies are one word
67b6ff27b236e98e634c438f492e8811f9da31da04cb9454819a9dd4b70c58c4,2018-05-05 02:37:28,1.0,the bot is incoherent
8a2cc7c1cd3d42951bd340f891cac59c3ff7e2c4f9cccfa517b0351393fb3b34,2018-05-05 04:02:56,2.0,sorry need improvement
f497b8049de549605bfcad038ecc6e75a04cc066ec677ed61ce1a8b2ae5379ca,2018-05-05 08:05:53,,this is annoying leave me 
c0381fff536fd2d9a669fce554a120461457d165f8490de14f3825355948a7d4,2018-05-05 22:26:54,1.0,poor latency poor uhhh chat
68dd889cc3397fb9bba014b7e6a12d12e4196d9629ab425431c44335b87a6979,2018-05-06 12:47:42,4.5,uhhh she didn't really talk about much and it was 
5f3242b6aea34878e0c7cfa7083c02abc2b5fa287fcb83cc7c041a0d8c1dcb22,2018-05-06 15:55:25,2.0,social bot seems to be having problems repeated the same thing about changing topics and curious about whether i'm a cat person or a dog person  asked me about five times that same question before i can get her to switch i was interested in travel and she knew about the dominican republic offered to give me fun facts and news about dominican republic but then didn't give me specific facts or news uhhh keep working on it guys thanks
5a9c6ce380fce7ff26480db4c042563b1624c64fe07145aebb69c257573b656b,2018-05-06 20:17:05,1.0,this was completely broken
68288e4384a14b2a3abb0ec5d90a31212c2d526ddebb6ffca9d55a3f6dff6911,2018-05-08 13:23:08,2.0,it start and then it didn't understand
0f5b3ff9b0b4c591788ddc1972151d3b4b1701c5f397d1e12b6b1cd1364e154f,2018-05-09 17:49:28,5.0,it doesn't know much
25547043710bd853fa8e9610d11fb34057a076468ab3cf7ca5d0d18a7aa0fb5f,2018-05-09 21:56:43,2.0,ummm the bot needs to give some information and not just ask questions all the time
6087f5acd29baa4b35b637f7588eeb24e25fd596cad30627751fd40fedbe60f8,2018-05-09 22:06:18,1.0,well i was going to see if i could have a conversation about bitcoin but i asked a question about bitcoin and it didn't answer and it kind of went downhill from there
78eaa41c7e27a8fbd8d2953af16629017688743f0fa9854c25471d8151ae532a,2018-05-10 17:19:46,3.0,your social bot should have a favorite holiday 
0d1777a4a6e74e9a176a87988a50cb75318d6cc39f92375b59b242c6a5f9c6da,2018-05-10 19:17:09,2.0,so she said that ahhh she liked the movie ready player one but i asked uhhh what she liked specifically and uhhh she she froze i tried uhhh four five different ways but she could not understand what i meant
dd06e8b8c3e447ed73132c77d79e70dc768e87485f8149a1547fe5a26dcea421,2018-05-10 20:39:57,1.0,the bot got stuck in introducing itself and kept wanting to introduce itself
39b7adf6d7df3383432742e1b11a0e2b9212547d8ebb92765e7ae0438416ddee,2018-05-10 22:48:29,2.0,not at this time
