{
  "host": "gpri4649wf.execute-api.us-east-1.amazonaws.com",
  "basePath": "/prod",
  "paths": {
    "/topic/v1/batchTopics": {
      "post": {
        "interface": "batch_detect_topic",
        "parameters": [
          {
            "in": "body",
            "name": "TopicV1BatchTopics",
            "required": true,
            "schema": {
              "$ref": "#/definitions/TopicV1BatchTopics"
            }
          }
        ],
        "responses": {
          "200": {
            "description": "200 response",
            "schema": {
              "$ref": "#/definitions/Empty"
            }
          }
        }
      }
    }
  },
  "definitions": {
    "TopicV1BatchTopics": {
      "type": "object",
      "required": [
        "utterances"
      ],
      "properties": {
        "utterances": {
          "$ref": "TextList"
        }
      },
      "title": "Topic V1 BatchTopics"
    },
    "TextList": {
      "type": "array",
      "minLength": 1,
      "items": {
        "$ref": "Text"
      }
    },
    "Text": {
      "type": "string",
      "minLength": 1
    }
  }
}