{
  "aio:HumanBeing": {
    "aio:isTheBirthdateOf": {
      "reversed": true
    },
    "aio:isTheBirthplaceOf": {
      "reversed": true
    },
    "aio:isTheCeoOf": {
      "reversed": false
    }
  },
  "aio:President": {
    "aio:isThePoliticalLeaderOf": {
      "reversed": false
    }
  },
  "aio:UsPresident": {
    "aio:isThePoliticalLeaderOf": {
      "reversed": false
    }
  },
  "aio:Writer": {
    "aio:isTheAuthorOf": {
      "reversed": false
    }
  }
}
