{
  "interactionModel": {
    "languageModel": {
      "invocationName": "alexis",
      "types": [
        {
          "name": "QUESTION_WORD",
          "values": [
            {
              "id": "WHO",
              "name": {
                "value": "who",
                "synonyms": []
              }
            },
            {
              "id": "WHAT",
              "name": {
                "value": "what",
                "synonyms": []
              }
            },
            {
              "id": "WHEN",
              "name": {
                "value": "when",
                "synonyms": []
              }
            },
            {
              "id": "WHERE",
              "name": {
                "value": "where",
                "synonyms": []
              }
            },
            {
              "id": "WHY",
              "name": {
                "value": "why",
                "synonyms": []
              }
            },
            {
              "id": "HOW_OLD",
              "name": {
                "value": "how old",
                "synonyms": []
              }
            }
          ]
        },
        {
          "name": "RAW_TEXT",
          "values": [
            {
              "name": {
                "value": "hi how are you"
              }
            },
            {
              "name": {
                "value": "a b c"
              }
            },
            {
              "name": {
                "value": "abc"
              }
            },
            {
              "name": {
                "value": "ab"
              }
            },
            {
              "name": {
                "value": "a"
              }
            }
          ]
        }
      ],
      "intents": [
        {
          "name": "AMAZON.CancelIntent",
          "samples": []
        },
        {
          "name": "AMAZON.HelpIntent",
          "samples": []
        },
        {
          "name": "AMAZON.StopIntent",
          "samples": []
        },
        {
          "name": "greet",
          "slots": [],
          "samples": [
            "hey",
            "hello",
            "hi",
            "hello there",
            "good morning",
            "good evening"
          ]
        },
        {
          "name": "goodbye",
          "slots": [],
          "samples": [
            "bye",
            "goodbye",
            "have a nice day",
            "see you around",
            "bye bye",
            "see you later"
          ]
        },
        {
          "name": "yes_intent",
          "slots": [],
          "samples": [
            "yes",
            "indeed",
            "of course",
            "that sounds good",
            "correct"
          ]
        },
        {
          "name": "no_intent",
          "slots": [],
          "samples": [
            "no",
            "never",
            "I don't think so",
            "don't like that",
            "no way"
          ]
        },
        {
          "name": "mood_great",
          "slots": [],
          "samples": [
            "wonderful",
            "I am feeling very good",
            "I am great",
            "I am amazing",
            "I am going to save the world"
          ]
        },
        {
          "name": "mood_unhappy",
          "slots": [],
          "samples": [
            "my day was horrible",
            "I am sad",
            "I don't feel very well",
            "I am disappointed"
          ]
        },
        {
          "name": "love",
          "slots": [],
          "samples": [
            "I love it",
            "that's a great idea",
            "awesome plan"
          ]
        },
        {
          "name": "hate",
          "slots": [],
          "samples": [
            "I hate this",
            "that's a terrible idea",
            "i can't stand this"
          ]
        },
        {
          "name": "topic_request",
          "slots": [
            {
              "name": "topic",
              "type": "RAW_TEXT"
            }
          ],
          "samples": [
            "let's chat about {topic}",
            "can we talk about {topic}",
            "tell me about {topic}",
            "what can you tell me about {topic}",
            "can we chat about {topic}",
            "can you say something about {topic}",
            "let's talk about {topic}",
            "can we discuss {topic}"
          ]
        },
        {
          "name": "more_info_request",
          "slots": [
            {
              "name": "topic",
              "type": "RAW_TEXT"
            }
          ],
          "samples": [
            "can you tell me more about {topic}",
            "what else do you know about {topic}",
            "i want to hear more about {topic}",
            "can you tell me something else about {topic}",
            "I want more info on {topic}"
          ]
        },
        {
          "name": "opinion_request",
          "slots": [
            {
              "name": "topic",
              "type": "RAW_TEXT"
            },
            {
              "name": "role",
              "type": "RAW_TEXT"
            }
          ],
          "samples": [
            "what is your opinion on that",
            "what is your opinion about {topic}",
            "what do you think about {topic}",
            "do you have an opinion on {topic}",
            "was {topic} a good {role}",
            "what is your favorite {topic}",
            "do you like {topic}"
          ]
        },
        {
          "name": "frustration",
          "slots": [],
          "samples": [
            "fuck no",
            "idiot",
            "you are an idiot",
            "damn you",
            "screw that"
          ]
        },
        {
          "name": "error",
          "slots": [],
          "samples": [
            "you are wrong",
            "that's not what I meant",
            "you made a mistake",
            "you got that wrong",
            "that is incorrect"
          ]
        },
        {
          "name": "QAIntent",
          "slots": [
            {
              "name": "question_word",
              "type": "QUESTION_WORD"
            },
            {
              "name": "question_text",
              "type": "RAW_TEXT"
            }
          ],
          "samples": [
            "{question_word} {question_text}"
          ]
        }
      ]
    }
  }
}